+--ieee1588MibV1(1)
   |
   +--ieee1588Notifications(0)
   |
   +--ieee1588Objects(1)
   |  |
   |  +--ieee1588Base(1)
   |  |  |
   |  |  +--ieee1588BaseInstanceTable(1)
   |  |  |  |
   |  |  |  +--ieee1588BaseInstanceEntry(1)
   |  |  |     |  Index: ieee1588InstanceIndex
   |  |  |     |
   |  |  |     +-- ---- Unsigned  ieee1588InstanceIndex(1)
   |  |  |     |        Range: 1..65534
   |  |  |     +-- CR-- EnumVal   ieee1588BaseInstanceRowStatus(2)
   |  |  |     |        Textual Convention: RowStatus
   |  |  |     |        Values: active(1), notInService(2), notReady(3), createAndGo(4), createAndWait(5), destroy(6)
   |  |  |     +-- CR-- String    ieee1588BaseInstanceName(3)
   |  |  |              Textual Convention: SnmpAdminString
   |  |  |              Size: 0..255
   |  |  |
   |  |  +--ieee1588BasePortTable(2)
   |  |  |  |
   |  |  |  +--ieee1588BasePortEntry(1)
   |  |  |     |  Index: ieee1588InstanceIndex, ieee1588PortIndex
   |  |  |     |
   |  |  |     +-- ---- Unsigned  ieee1588PortIndex(2)
   |  |  |     |        Range: 1..65534
   |  |  |     +-- CR-- EnumVal   ieee1588BasePortRowStatus(3)
   |  |  |     |        Textual Convention: RowStatus
   |  |  |     |        Values: active(1), notInService(2), notReady(3), createAndGo(4), createAndWait(5), destroy(6)
   |  |  |     +-- CR-- Integer32 ieee1588BasePortIfIndex(4)
   |  |  |     |        Textual Convention: InterfaceIndexOrZero
   |  |  |     |        Range: 0..2147483647
   |  |  |     +-- CR-- ObjID     ieee1588BasePortIfIndexOid(5)
   |  |  |              Textual Convention: Ieee1588IfIndexOid
   |  |  |
   |  |  +--ieee1588BaseEnum(3)
   |  |     |
   |  |     +--ieee1588BaseEnumClockAccuracy(1)
   |  |     |  |
   |  |     |  +--ieee1588BaseEnumCaTimeAccurateTo1000fs(23)
   |  |     |  +--ieee1588BaseEnumCaTimeAccurateTo2500fs(24)
   |  |     |  +--ieee1588BaseEnumCaTimeAccurateTo10ps(25)
   |  |     |  +--ieee1588BaseEnumCaTimeAccurateTo25ps(26)
   |  |     |  +--ieee1588BaseEnumCaTimeAccurateTo100ps(27)
   |  |     |  +--ieee1588BaseEnumCaTimeAccurateTo250ps(28)
   |  |     |  +--ieee1588BaseEnumCaTimeAccurateTo1000ps(29)
   |  |     |  +--ieee1588BaseEnumCaTimeAccurateTo2500ps(30)
   |  |     |  +--ieee1588BaseEnumCaTimeAccurateTo10ns(31)
   |  |     |  +--ieee1588BaseEnumCaTimeAccurateTo25ns(32)
   |  |     |  +--ieee1588BaseEnumCaTimeAccurateTo100ns(33)
   |  |     |  +--ieee1588BaseEnumCaTimeAccurateTo250ns(34)
   |  |     |  +--ieee1588BaseEnumCaTimeAccurateTo1000ns(35)
   |  |     |  +--ieee1588BaseEnumCaTimeAccurateTo2500ns(36)
   |  |     |  +--ieee1588BaseEnumCaTimeAccurateTo10us(37)
   |  |     |  +--ieee1588BaseEnumCaTimeAccurateTo25us(38)
   |  |     |  +--ieee1588BaseEnumCaTimeAccurateTo100us(39)
   |  |     |  +--ieee1588BaseEnumCaTimeAccurateTo250us(40)
   |  |     |  +--ieee1588BaseEnumCaTimeAccurateTo1000us(41)
   |  |     |  +--ieee1588BaseEnumCaTimeAccurateTo2500us(42)
   |  |     |  +--ieee1588BaseEnumCaTimeAccurateTo10ms(43)
   |  |     |  +--ieee1588BaseEnumCaTimeAccurateTo25ms(44)
   |  |     |  +--ieee1588BaseEnumCaTimeAccurateTo100ms(45)
   |  |     |  +--ieee1588BaseEnumCaTimeAccurateTo250ms(46)
   |  |     |  +--ieee1588BaseEnumCaTimeAccurateTo1s(47)
   |  |     |  +--ieee1588BaseEnumCaTimeAccurateTo10s(48)
   |  |     |  +--ieee1588BaseEnumCaTimeAccurateToGT10s(49)
   |  |     |  +--ieee1588BaseEnumCaAltPtpProfile128(128)
   |  |     |  +--ieee1588BaseEnumCaAltPtpProfile129(129)
   |  |     |  +--ieee1588BaseEnumCaAltPtpProfile130(130)
   |  |     |  +--ieee1588BaseEnumCaAltPtpProfile131(131)
   |  |     |  +--ieee1588BaseEnumCaAltPtpProfile132(132)
   |  |     |  +--ieee1588BaseEnumCaAltPtpProfile133(133)
   |  |     |  +--ieee1588BaseEnumCaAltPtpProfile134(134)
   |  |     |  +--ieee1588BaseEnumCaAltPtpProfile135(135)
   |  |     |  +--ieee1588BaseEnumCaAltPtpProfile136(136)
   |  |     |  +--ieee1588BaseEnumCaAltPtpProfile137(137)
   |  |     |  +--ieee1588BaseEnumCaAltPtpProfile138(138)
   |  |     |  +--ieee1588BaseEnumCaAltPtpProfile139(139)
   |  |     |  +--ieee1588BaseEnumCaAltPtpProfile140(140)
   |  |     |  +--ieee1588BaseEnumCaAltPtpProfile141(141)
   |  |     |  +--ieee1588BaseEnumCaAltPtpProfile142(142)
   |  |     |  +--ieee1588BaseEnumCaAltPtpProfile143(143)
   |  |     |  +--ieee1588BaseEnumCaAltPtpProfile144(144)
   |  |     |  +--ieee1588BaseEnumCaAltPtpProfile145(145)
   |  |     |  +--ieee1588BaseEnumCaAltPtpProfile146(146)
   |  |     |  +--ieee1588BaseEnumCaAltPtpProfile147(147)
   |  |     |  +--ieee1588BaseEnumCaAltPtpProfile148(148)
   |  |     |  +--ieee1588BaseEnumCaAltPtpProfile149(149)
   |  |     |  +--ieee1588BaseEnumCaAltPtpProfile150(150)
   |  |     |  +--ieee1588BaseEnumCaAltPtpProfile151(151)
   |  |     |  +--ieee1588BaseEnumCaAltPtpProfile152(152)
   |  |     |  +--ieee1588BaseEnumCaAltPtpProfile153(153)
   |  |     |  +--ieee1588BaseEnumCaAltPtpProfile154(154)
   |  |     |  +--ieee1588BaseEnumCaAltPtpProfile155(155)
   |  |     |  +--ieee1588BaseEnumCaAltPtpProfile156(156)
   |  |     |  +--ieee1588BaseEnumCaAltPtpProfile157(157)
   |  |     |  +--ieee1588BaseEnumCaAltPtpProfile158(158)
   |  |     |  +--ieee1588BaseEnumCaAltPtpProfile159(159)
   |  |     |  +--ieee1588BaseEnumCaAltPtpProfile160(160)
   |  |     |  +--ieee1588BaseEnumCaAltPtpProfile161(161)
   |  |     |  +--ieee1588BaseEnumCaAltPtpProfile162(162)
   |  |     |  +--ieee1588BaseEnumCaAltPtpProfile163(163)
   |  |     |  +--ieee1588BaseEnumCaAltPtpProfile164(164)
   |  |     |  +--ieee1588BaseEnumCaAltPtpProfile165(165)
   |  |     |  +--ieee1588BaseEnumCaAltPtpProfile166(166)
   |  |     |  +--ieee1588BaseEnumCaAltPtpProfile167(167)
   |  |     |  +--ieee1588BaseEnumCaAltPtpProfile168(168)
   |  |     |  +--ieee1588BaseEnumCaAltPtpProfile169(169)
   |  |     |  +--ieee1588BaseEnumCaAltPtpProfile170(170)
   |  |     |  +--ieee1588BaseEnumCaAltPtpProfile171(171)
   |  |     |  +--ieee1588BaseEnumCaAltPtpProfile172(172)
   |  |     |  +--ieee1588BaseEnumCaAltPtpProfile173(173)
   |  |     |  +--ieee1588BaseEnumCaAltPtpProfile174(174)
   |  |     |  +--ieee1588BaseEnumCaAltPtpProfile175(175)
   |  |     |  +--ieee1588BaseEnumCaAltPtpProfile176(176)
   |  |     |  +--ieee1588BaseEnumCaAltPtpProfile177(177)
   |  |     |  +--ieee1588BaseEnumCaAltPtpProfile178(178)
   |  |     |  +--ieee1588BaseEnumCaAltPtpProfile179(179)
   |  |     |  +--ieee1588BaseEnumCaAltPtpProfile180(180)
   |  |     |  +--ieee1588BaseEnumCaAltPtpProfile181(181)
   |  |     |  +--ieee1588BaseEnumCaAltPtpProfile182(182)
   |  |     |  +--ieee1588BaseEnumCaAltPtpProfile183(183)
   |  |     |  +--ieee1588BaseEnumCaAltPtpProfile184(184)
   |  |     |  +--ieee1588BaseEnumCaAltPtpProfile185(185)
   |  |     |  +--ieee1588BaseEnumCaAltPtpProfile186(186)
   |  |     |  +--ieee1588BaseEnumCaAltPtpProfile187(187)
   |  |     |  +--ieee1588BaseEnumCaAltPtpProfile188(188)
   |  |     |  +--ieee1588BaseEnumCaAltPtpProfile189(189)
   |  |     |  +--ieee1588BaseEnumCaAltPtpProfile190(190)
   |  |     |  +--ieee1588BaseEnumCaAltPtpProfile191(191)
   |  |     |  +--ieee1588BaseEnumCaAltPtpProfile192(192)
   |  |     |  +--ieee1588BaseEnumCaAltPtpProfile193(193)
   |  |     |  +--ieee1588BaseEnumCaAltPtpProfile194(194)
   |  |     |  +--ieee1588BaseEnumCaAltPtpProfile195(195)
   |  |     |  +--ieee1588BaseEnumCaAltPtpProfile196(196)
   |  |     |  +--ieee1588BaseEnumCaAltPtpProfile197(197)
   |  |     |  +--ieee1588BaseEnumCaAltPtpProfile198(198)
   |  |     |  +--ieee1588BaseEnumCaAltPtpProfile199(199)
   |  |     |  +--ieee1588BaseEnumCaAltPtpProfile200(200)
   |  |     |  +--ieee1588BaseEnumCaAltPtpProfile201(201)
   |  |     |  +--ieee1588BaseEnumCaAltPtpProfile202(202)
   |  |     |  +--ieee1588BaseEnumCaAltPtpProfile203(203)
   |  |     |  +--ieee1588BaseEnumCaAltPtpProfile204(204)
   |  |     |  +--ieee1588BaseEnumCaAltPtpProfile205(205)
   |  |     |  +--ieee1588BaseEnumCaAltPtpProfile206(206)
   |  |     |  +--ieee1588BaseEnumCaAltPtpProfile207(207)
   |  |     |  +--ieee1588BaseEnumCaAltPtpProfile208(208)
   |  |     |  +--ieee1588BaseEnumCaAltPtpProfile209(209)
   |  |     |  +--ieee1588BaseEnumCaAltPtpProfile210(210)
   |  |     |  +--ieee1588BaseEnumCaAltPtpProfile211(211)
   |  |     |  +--ieee1588BaseEnumCaAltPtpProfile212(212)
   |  |     |  +--ieee1588BaseEnumCaAltPtpProfile213(213)
   |  |     |  +--ieee1588BaseEnumCaAltPtpProfile214(214)
   |  |     |  +--ieee1588BaseEnumCaAltPtpProfile215(215)
   |  |     |  +--ieee1588BaseEnumCaAltPtpProfile216(216)
   |  |     |  +--ieee1588BaseEnumCaAltPtpProfile217(217)
   |  |     |  +--ieee1588BaseEnumCaAltPtpProfile218(218)
   |  |     |  +--ieee1588BaseEnumCaAltPtpProfile219(219)
   |  |     |  +--ieee1588BaseEnumCaAltPtpProfile220(220)
   |  |     |  +--ieee1588BaseEnumCaAltPtpProfile221(221)
   |  |     |  +--ieee1588BaseEnumCaAltPtpProfile222(222)
   |  |     |  +--ieee1588BaseEnumCaAltPtpProfile223(223)
   |  |     |  +--ieee1588BaseEnumCaAltPtpProfile224(224)
   |  |     |  +--ieee1588BaseEnumCaAltPtpProfile225(225)
   |  |     |  +--ieee1588BaseEnumCaAltPtpProfile226(226)
   |  |     |  +--ieee1588BaseEnumCaAltPtpProfile227(227)
   |  |     |  +--ieee1588BaseEnumCaAltPtpProfile228(228)
   |  |     |  +--ieee1588BaseEnumCaAltPtpProfile229(229)
   |  |     |  +--ieee1588BaseEnumCaAltPtpProfile230(230)
   |  |     |  +--ieee1588BaseEnumCaAltPtpProfile231(231)
   |  |     |  +--ieee1588BaseEnumCaAltPtpProfile232(232)
   |  |     |  +--ieee1588BaseEnumCaAltPtpProfile233(233)
   |  |     |  +--ieee1588BaseEnumCaAltPtpProfile234(234)
   |  |     |  +--ieee1588BaseEnumCaAltPtpProfile235(235)
   |  |     |  +--ieee1588BaseEnumCaAltPtpProfile236(236)
   |  |     |  +--ieee1588BaseEnumCaAltPtpProfile237(237)
   |  |     |  +--ieee1588BaseEnumCaAltPtpProfile238(238)
   |  |     |  +--ieee1588BaseEnumCaAltPtpProfile239(239)
   |  |     |  +--ieee1588BaseEnumCaAltPtpProfile240(240)
   |  |     |  +--ieee1588BaseEnumCaAltPtpProfile241(241)
   |  |     |  +--ieee1588BaseEnumCaAltPtpProfile242(242)
   |  |     |  +--ieee1588BaseEnumCaAltPtpProfile243(243)
   |  |     |  +--ieee1588BaseEnumCaAltPtpProfile244(244)
   |  |     |  +--ieee1588BaseEnumCaAltPtpProfile245(245)
   |  |     |  +--ieee1588BaseEnumCaAltPtpProfile246(246)
   |  |     |  +--ieee1588BaseEnumCaAltPtpProfile247(247)
   |  |     |  +--ieee1588BaseEnumCaAltPtpProfile248(248)
   |  |     |  +--ieee1588BaseEnumCaAltPtpProfile249(249)
   |  |     |  +--ieee1588BaseEnumCaAltPtpProfile250(250)
   |  |     |  +--ieee1588BaseEnumCaAltPtpProfile251(251)
   |  |     |  +--ieee1588BaseEnumCaAltPtpProfile252(252)
   |  |     |  +--ieee1588BaseEnumCaAltPtpProfile253(253)
   |  |     |  +--ieee1588BaseEnumCaTimeAccurateToUnknown(254)
   |  |     |
   |  |     +--ieee1588BaseEnumClockClass(2)
   |  |     |  |
   |  |     |  +--ieee1588BaseEnumCcPrimarySync(6)
   |  |     |  +--ieee1588BaseEnumCcPrimaryHoldover(7)
   |  |     |  +--ieee1588BaseEnumCcApplicationSpecificSync(13)
   |  |     |  +--ieee1588BaseEnumCcApplicationSpecficHoldover(14)
   |  |     |  +--ieee1588BaseEnumCcPrimaryHoldoverDegradationA(52)
   |  |     |  +--ieee1588BaseEnumCcApplicationSpecificHoldoverDegradationA(58)
   |  |     |  +--ieee1588BaseEnumCcAltPtpProfile68(68)
   |  |     |  +--ieee1588BaseEnumCcAltPtpProfile69(69)
   |  |     |  +--ieee1588BaseEnumCcAltPtpProfile70(70)
   |  |     |  +--ieee1588BaseEnumCcAltPtpProfile71(71)
   |  |     |  +--ieee1588BaseEnumCcAltPtpProfile72(72)
   |  |     |  +--ieee1588BaseEnumCcAltPtpProfile73(73)
   |  |     |  +--ieee1588BaseEnumCcAltPtpProfile74(74)
   |  |     |  +--ieee1588BaseEnumCcAltPtpProfile75(75)
   |  |     |  +--ieee1588BaseEnumCcAltPtpProfile76(76)
   |  |     |  +--ieee1588BaseEnumCcAltPtpProfile77(77)
   |  |     |  +--ieee1588BaseEnumCcAltPtpProfile78(78)
   |  |     |  +--ieee1588BaseEnumCcAltPtpProfile79(79)
   |  |     |  +--ieee1588BaseEnumCcAltPtpProfile80(80)
   |  |     |  +--ieee1588BaseEnumCcAltPtpProfile81(81)
   |  |     |  +--ieee1588BaseEnumCcAltPtpProfile82(82)
   |  |     |  +--ieee1588BaseEnumCcAltPtpProfile83(83)
   |  |     |  +--ieee1588BaseEnumCcAltPtpProfile84(84)
   |  |     |  +--ieee1588BaseEnumCcAltPtpProfile85(85)
   |  |     |  +--ieee1588BaseEnumCcAltPtpProfile86(86)
   |  |     |  +--ieee1588BaseEnumCcAltPtpProfile87(87)
   |  |     |  +--ieee1588BaseEnumCcAltPtpProfile88(88)
   |  |     |  +--ieee1588BaseEnumCcAltPtpProfile89(89)
   |  |     |  +--ieee1588BaseEnumCcAltPtpProfile90(90)
   |  |     |  +--ieee1588BaseEnumCcAltPtpProfile91(91)
   |  |     |  +--ieee1588BaseEnumCcAltPtpProfile92(92)
   |  |     |  +--ieee1588BaseEnumCcAltPtpProfile93(93)
   |  |     |  +--ieee1588BaseEnumCcAltPtpProfile94(94)
   |  |     |  +--ieee1588BaseEnumCcAltPtpProfile95(95)
   |  |     |  +--ieee1588BaseEnumCcAltPtpProfile96(96)
   |  |     |  +--ieee1588BaseEnumCcAltPtpProfile97(97)
   |  |     |  +--ieee1588BaseEnumCcAltPtpProfile98(98)
   |  |     |  +--ieee1588BaseEnumCcAltPtpProfile99(99)
   |  |     |  +--ieee1588BaseEnumCcAltPtpProfile100(100)
   |  |     |  +--ieee1588BaseEnumCcAltPtpProfile101(101)
   |  |     |  +--ieee1588BaseEnumCcAltPtpProfile102(102)
   |  |     |  +--ieee1588BaseEnumCcAltPtpProfile103(103)
   |  |     |  +--ieee1588BaseEnumCcAltPtpProfile104(104)
   |  |     |  +--ieee1588BaseEnumCcAltPtpProfile105(105)
   |  |     |  +--ieee1588BaseEnumCcAltPtpProfile106(106)
   |  |     |  +--ieee1588BaseEnumCcAltPtpProfile107(107)
   |  |     |  +--ieee1588BaseEnumCcAltPtpProfile108(108)
   |  |     |  +--ieee1588BaseEnumCcAltPtpProfile109(109)
   |  |     |  +--ieee1588BaseEnumCcAltPtpProfile110(110)
   |  |     |  +--ieee1588BaseEnumCcAltPtpProfile111(111)
   |  |     |  +--ieee1588BaseEnumCcAltPtpProfile112(112)
   |  |     |  +--ieee1588BaseEnumCcAltPtpProfile113(113)
   |  |     |  +--ieee1588BaseEnumCcAltPtpProfile114(114)
   |  |     |  +--ieee1588BaseEnumCcAltPtpProfile115(115)
   |  |     |  +--ieee1588BaseEnumCcAltPtpProfile116(116)
   |  |     |  +--ieee1588BaseEnumCcAltPtpProfile117(117)
   |  |     |  +--ieee1588BaseEnumCcAltPtpProfile118(118)
   |  |     |  +--ieee1588BaseEnumCcAltPtpProfile119(119)
   |  |     |  +--ieee1588BaseEnumCcAltPtpProfile120(120)
   |  |     |  +--ieee1588BaseEnumCcAltPtpProfile121(121)
   |  |     |  +--ieee1588BaseEnumCcAltPtpProfile122(122)
   |  |     |  +--ieee1588BaseEnumCcAltPtpProfile133(133)
   |  |     |  +--ieee1588BaseEnumCcAltPtpProfile134(134)
   |  |     |  +--ieee1588BaseEnumCcAltPtpProfile135(135)
   |  |     |  +--ieee1588BaseEnumCcAltPtpProfile136(136)
   |  |     |  +--ieee1588BaseEnumCcAltPtpProfile137(137)
   |  |     |  +--ieee1588BaseEnumCcAltPtpProfile138(138)
   |  |     |  +--ieee1588BaseEnumCcAltPtpProfile139(139)
   |  |     |  +--ieee1588BaseEnumCcAltPtpProfile140(140)
   |  |     |  +--ieee1588BaseEnumCcAltPtpProfile141(141)
   |  |     |  +--ieee1588BaseEnumCcAltPtpProfile142(142)
   |  |     |  +--ieee1588BaseEnumCcAltPtpProfile143(143)
   |  |     |  +--ieee1588BaseEnumCcAltPtpProfile144(144)
   |  |     |  +--ieee1588BaseEnumCcAltPtpProfile145(145)
   |  |     |  +--ieee1588BaseEnumCcAltPtpProfile146(146)
   |  |     |  +--ieee1588BaseEnumCcAltPtpProfile147(147)
   |  |     |  +--ieee1588BaseEnumCcAltPtpProfile148(148)
   |  |     |  +--ieee1588BaseEnumCcAltPtpProfile149(149)
   |  |     |  +--ieee1588BaseEnumCcAltPtpProfile150(150)
   |  |     |  +--ieee1588BaseEnumCcAltPtpProfile151(151)
   |  |     |  +--ieee1588BaseEnumCcAltPtpProfile152(152)
   |  |     |  +--ieee1588BaseEnumCcAltPtpProfile153(153)
   |  |     |  +--ieee1588BaseEnumCcAltPtpProfile154(154)
   |  |     |  +--ieee1588BaseEnumCcAltPtpProfile155(155)
   |  |     |  +--ieee1588BaseEnumCcAltPtpProfile156(156)
   |  |     |  +--ieee1588BaseEnumCcAltPtpProfile157(157)
   |  |     |  +--ieee1588BaseEnumCcAltPtpProfile158(158)
   |  |     |  +--ieee1588BaseEnumCcAltPtpProfile159(159)
   |  |     |  +--ieee1588BaseEnumCcAltPtpProfile160(160)
   |  |     |  +--ieee1588BaseEnumCcAltPtpProfile161(161)
   |  |     |  +--ieee1588BaseEnumCcAltPtpProfile162(162)
   |  |     |  +--ieee1588BaseEnumCcAltPtpProfile163(163)
   |  |     |  +--ieee1588BaseEnumCcAltPtpProfile164(164)
   |  |     |  +--ieee1588BaseEnumCcAltPtpProfile165(165)
   |  |     |  +--ieee1588BaseEnumCcAltPtpProfile166(166)
   |  |     |  +--ieee1588BaseEnumCcAltPtpProfile167(167)
   |  |     |  +--ieee1588BaseEnumCcAltPtpProfile168(168)
   |  |     |  +--ieee1588BaseEnumCcAltPtpProfile169(169)
   |  |     |  +--ieee1588BaseEnumCcAltPtpProfile170(170)
   |  |     |  +--ieee1588BaseEnumCcPrimaryHoldoverDegradationB(187)
   |  |     |  +--ieee1588BaseEnumCcApplicationSpecficHoldoverDegradationB(193)
   |  |     |  +--ieee1588BaseEnumCcAltPtpProfile216(216)
   |  |     |  +--ieee1588BaseEnumCcAltPtpProfile217(217)
   |  |     |  +--ieee1588BaseEnumCcAltPtpProfile218(218)
   |  |     |  +--ieee1588BaseEnumCcAltPtpProfile219(219)
   |  |     |  +--ieee1588BaseEnumCcAltPtpProfile220(220)
   |  |     |  +--ieee1588BaseEnumCcAltPtpProfile221(221)
   |  |     |  +--ieee1588BaseEnumCcAltPtpProfile222(222)
   |  |     |  +--ieee1588BaseEnumCcAltPtpProfile223(223)
   |  |     |  +--ieee1588BaseEnumCcAltPtpProfile224(224)
   |  |     |  +--ieee1588BaseEnumCcAltPtpProfile225(225)
   |  |     |  +--ieee1588BaseEnumCcAltPtpProfile226(226)
   |  |     |  +--ieee1588BaseEnumCcAltPtpProfile227(227)
   |  |     |  +--ieee1588BaseEnumCcAltPtpProfile228(228)
   |  |     |  +--ieee1588BaseEnumCcAltPtpProfile229(229)
   |  |     |  +--ieee1588BaseEnumCcAltPtpProfile230(230)
   |  |     |  +--ieee1588BaseEnumCcAltPtpProfile231(231)
   |  |     |  +--ieee1588BaseEnumCcAltPtpProfile232(232)
   |  |     |  +--ieee1588BaseEnumCcDefault(248)
   |  |     |  +--ieee1588BaseEnumCcTimeReceiverOnlyClock(255)
   |  |     |
   |  |     +--ieee1588BaseEnumDelayMechanism(3)
   |  |     |  |
   |  |     |  +--ieee1588BaseEnumDmE2e(1)
   |  |     |  +--ieee1588BaseEnumDmP2p(2)
   |  |     |  +--ieee1588BaseEnumDmCommonP2p(3)
   |  |     |  +--ieee1588BaseEnumDmSpecial(4)
   |  |     |  +--ieee1588BaseEnumDmNoMechanism(254)
   |  |     |
   |  |     +--ieee1588BaseEnumInstanceType(4)
   |  |     |  |
   |  |     |  +--ieee1588BaseEnumItOrdinaryClock(0)
   |  |     |  +--ieee1588BaseEnumItBoundaryClock(1)
   |  |     |  +--ieee1588BaseEnumItPeerToPeerTransparentClock(2)
   |  |     |  +--ieee1588BaseEnumItEndToEndTransparentClock(3)
   |  |     |
   |  |     +--ieee1588BaseEnumL1SyncState(5)
   |  |     |  |
   |  |     |  +--ieee1588BaseEnumL1SsDisabled(1)
   |  |     |  +--ieee1588BaseEnumL1SsIdle(2)
   |  |     |  +--ieee1588BaseEnumL1SsLinkAlive(3)
   |  |     |  +--ieee1588BaseEnumL1SsConfigMatch(4)
   |  |     |  +--ieee1588BaseEnumL1SsL1SyncUp(5)
   |  |     |
   |  |     +--ieee1588BaseEnumMessageType(6)
   |  |     |  |
   |  |     |  +--ieee1588BaseEnumMtSync(0)
   |  |     |  +--ieee1588BaseEnumMtDelayReq(1)
   |  |     |  +--ieee1588BaseEnumMtPdelayReq(2)
   |  |     |  +--ieee1588BaseEnumMtPdelayResp(3)
   |  |     |  +--ieee1588BaseEnumMtFollowUp(8)
   |  |     |  +--ieee1588BaseEnumMtDelayResp(9)
   |  |     |  +--ieee1588BaseEnumMtPdelayRespFollowUp(10)
   |  |     |  +--ieee1588BaseEnumMtAnnounce(11)
   |  |     |  +--ieee1588BaseEnumMtSignaling(12)
   |  |     |  +--ieee1588BaseEnumMtManagement(13)
   |  |     |
   |  |     +--ieee1588BaseEnumNetworkProtocol(7)
   |  |     |  |
   |  |     |  +--ieee1588BaseEnumNpUdpIpv4(1)
   |  |     |  +--ieee1588BaseEnumNpUdpIPv6(2)
   |  |     |  +--ieee1588BaseEnumNpIeee8023(3)
   |  |     |  +--ieee1588BaseEnumNpDeviceNet(4)
   |  |     |  +--ieee1588BaseEnumNpControlNet(5)
   |  |     |  +--ieee1588BaseEnumNpProfinet(6)
   |  |     |  +--ieee1588BaseEnumNpOtn(7)
   |  |     |  +--ieee1588BaseEnumNpUnknown(65534)
   |  |     |
   |  |     +--ieee1588BaseEnumPortState(8)
   |  |     |  |
   |  |     |  +--ieee1588BaseEnumPsInitializing(1)
   |  |     |  +--ieee1588BaseEnumPsFaulty(2)
   |  |     |  +--ieee1588BaseEnumPsDisabled(3)
   |  |     |  +--ieee1588BaseEnumPsListening(4)
   |  |     |  +--ieee1588BaseEnumPsPreTimeTransmitter(5)
   |  |     |  +--ieee1588BaseEnumPsTimeTransmitter(6)
   |  |     |  +--ieee1588BaseEnumPsPassive(7)
   |  |     |  +--ieee1588BaseEnumPsUncalibrated(8)
   |  |     |  +--ieee1588BaseEnumPsTimeReceiver(9)
   |  |     |
   |  |     +--ieee1588BaseEnumSeverityCode(9)
   |  |     |  |
   |  |     |  +--ieee1588BaseEnumScEmergency(0)
   |  |     |  +--ieee1588BaseEnumScAlert(1)
   |  |     |  +--ieee1588BaseEnumScCritical(2)
   |  |     |  +--ieee1588BaseEnumScError(3)
   |  |     |  +--ieee1588BaseEnumScWarning(4)
   |  |     |  +--ieee1588BaseEnumScNotice(5)
   |  |     |  +--ieee1588BaseEnumScInformational(6)
   |  |     |  +--ieee1588BaseEnumScDebug(7)
   |  |     |
   |  |     +--ieee1588BaseEnumTimeSource(10)
   |  |        |
   |  |        +--ieee1588BaseEnumTsAtomicClock(16)
   |  |        +--ieee1588BaseEnumTsGnss(32)
   |  |        +--ieee1588BaseEnumTsTerrestrialRadio(48)
   |  |        +--ieee1588BaseEnumTsSerialTimeCode(57)
   |  |        +--ieee1588BaseEnumTsPtp(64)
   |  |        +--ieee1588BaseEnumTsNtp(80)
   |  |        +--ieee1588BaseEnumTsHandSet(96)
   |  |        +--ieee1588BaseEnumTsOther(144)
   |  |        +--ieee1588BaseEnumTsInternalOscillator(160)
   |  |        +--ieee1588BaseEnumtSAltPtpProfile0xF0(240)
   |  |        +--ieee1588BaseEnumtSAltPtpProfile0xF1(241)
   |  |        +--ieee1588BaseEnumtSAltPtpProfile0xF2(242)
   |  |        +--ieee1588BaseEnumtSAltPtpProfile0xF3(243)
   |  |        +--ieee1588BaseEnumtSAltPtpProfile0xF4(244)
   |  |        +--ieee1588BaseEnumtSAltPtpProfile0xF5(245)
   |  |        +--ieee1588BaseEnumtSAltPtpProfile0xF6(246)
   |  |        +--ieee1588BaseEnumtSAltPtpProfile0xF7(247)
   |  |        +--ieee1588BaseEnumtSAltPtpProfile0xF8(248)
   |  |        +--ieee1588BaseEnumtSAltPtpProfile0xF9(249)
   |  |        +--ieee1588BaseEnumtSAltPtpProfile0xFA(250)
   |  |        +--ieee1588BaseEnumtSAltPtpProfile0xFB(251)
   |  |        +--ieee1588BaseEnumtSAltPtpProfile0xFC(252)
   |  |        +--ieee1588BaseEnumtSAltPtpProfile0xFD(253)
   |  |        +--ieee1588BaseEnumtSAltPtpProfile0xFE(254)
   |  |
   |  +--ieee1588Instances(2)
   |  |  |
   |  |  +--ieee1588DefaultDsTable(1)
   |  |  |  |
   |  |  |  +--ieee1588DefaultDsEntry(1)
   |  |  |     |  Index: ieee1588InstanceIndex
   |  |  |     |
   |  |  |     +-- -R-- EnumVal   ieee1588DefaultDsTwoStepFlag(2)
   |  |  |     |        Textual Convention: TruthValue
   |  |  |     |        Values: true(1), false(2)
   |  |  |     +-- -R-- String    ieee1588DefaultDsClockIdentity(3)
   |  |  |     |        Textual Convention: Ieee1588ClockIdentity
   |  |  |     |        Size: 8
   |  |  |     +-- -R-- Unsigned  ieee1588DefaultDsNumberPorts(4)
   |  |  |     |        Range: 0..65535
   |  |  |     +-- -RW- ObjID     ieee1588DefaultDsClockQualityClockClass(5)
   |  |  |     |        Textual Convention: Ieee1588ClockClass
   |  |  |     +-- -RW- ObjID     ieee1588DefaultDsClockQualityClockAccuracy(6)
   |  |  |     |        Textual Convention: Ieee1588ClockAccuracy
   |  |  |     +-- -RW- Unsigned  ieee1588DefaultDsClockQualityOffsetScaledLogVariance(7)
   |  |  |     |        Range: 0..65535
   |  |  |     +-- -RW- Unsigned  ieee1588DefaultDsPriority1(8)
   |  |  |     |        Range: 0..255
   |  |  |     +-- -RW- Unsigned  ieee1588DefaultDsPriority2(9)
   |  |  |     |        Range: 0..255
   |  |  |     +-- -RW- Unsigned  ieee1588DefaultDsDomainNumber(10)
   |  |  |     |        Range: 0..255
   |  |  |     +-- -RW- EnumVal   ieee1588DefaultDsTimeReceiverOnly(11)
   |  |  |     |        Textual Convention: TruthValue
   |  |  |     |        Values: true(1), false(2)
   |  |  |     +-- -RW- Unsigned  ieee1588DefaultDsSdoId(12)
   |  |  |     |        Range: 0..4095
   |  |  |     +-- -RW- String    ieee1588DefaultDsCurrentTimeSecondsField(13)
   |  |  |     |        Textual Convention: UInteger48
   |  |  |     |        Size: 6
   |  |  |     +-- -RW- Unsigned  ieee1588DefaultDsCurrentTimeNanosecondsField(14)
   |  |  |     |        Range: 0..999999999
   |  |  |     +-- -RW- EnumVal   ieee1588DefaultDsInstanceEnable(15)
   |  |  |     |        Textual Convention: TruthValue
   |  |  |     |        Values: true(1), false(2)
   |  |  |     +-- -RW- EnumVal   ieee1588DefaultDsExternalPortConfigurationEnabled(16)
   |  |  |     |        Textual Convention: TruthValue
   |  |  |     |        Values: true(1), false(2)
   |  |  |     +-- -RW- Unsigned  ieee1588DefaultDsMaxStepsRemoved(17)
   |  |  |     |        Range: 0..255
   |  |  |     +-- -RW- ObjID     ieee1588DefaultDsInstanceType(18)
   |  |  |              Textual Convention: Ieee1588InstanceType
   |  |  |
   |  |  +--ieee1588CurrentDsTable(2)
   |  |  |  |
   |  |  |  +--ieee1588CurrentDsEntry(1)
   |  |  |     |  Index: ieee1588InstanceIndex
   |  |  |     |
   |  |  |     +-- -R-- Unsigned  ieee1588CurrentDsStepsRemoved(2)
   |  |  |     |        Range: 0..65535
   |  |  |     +-- -R-- String    ieee1588CurrentDsOffsetFromTimeTransmitter(3)
   |  |  |     |        Textual Convention: Ieee1588TimeInterval
   |  |  |     |        Size: 8
   |  |  |     +-- -R-- String    ieee1588CurrentDsMeanDelay(4)
   |  |  |     |        Textual Convention: Ieee1588TimeInterval
   |  |  |     |        Size: 8
   |  |  |     +-- -R-- EnumVal   ieee1588CurrentDsSyncUncertain(5)
   |  |  |              Textual Convention: TruthValue
   |  |  |              Values: true(1), false(2)
   |  |  |
   |  |  +--ieee1588ParentDsTable(3)
   |  |  |  |
   |  |  |  +--ieee1588ParentDsEntry(1)
   |  |  |     |  Index: ieee1588InstanceIndex
   |  |  |     |
   |  |  |     +-- -R-- String    ieee1588ParentDsParentPortIdentityClockIdentity(2)
   |  |  |     |        Textual Convention: Ieee1588ClockIdentity
   |  |  |     |        Size: 8
   |  |  |     +-- -R-- Unsigned  ieee1588ParentDsParentPortIdentityPortNumber(3)
   |  |  |     |        Range: 0..65535
   |  |  |     +-- -R-- EnumVal   ieee1588ParentDsParentStats(4)
   |  |  |     |        Textual Convention: TruthValue
   |  |  |     |        Values: true(1), false(2)
   |  |  |     +-- -R-- Unsigned  ieee1588ParentDsObservedParentOffsetScaledLogVariance(5)
   |  |  |     |        Range: 0..65535
   |  |  |     +-- -R-- Integer32 ieee1588ParentDsObservedParentClockPhaseChangeRate(6)
   |  |  |     +-- -R-- String    ieee1588ParentDsGrandmasterIdentity(7)
   |  |  |     |        Textual Convention: Ieee1588ClockIdentity
   |  |  |     |        Size: 8
   |  |  |     +-- -R-- ObjID     ieee1588ParentDsGrandmasterClockQualityClockClass(8)
   |  |  |     |        Textual Convention: Ieee1588ClockClass
   |  |  |     +-- -R-- ObjID     ieee1588ParentDsGrandmasterClockQualityClockAccuracy(9)
   |  |  |     |        Textual Convention: Ieee1588ClockAccuracy
   |  |  |     +-- -R-- Unsigned  ieee1588ParentDsGrandmasterClockQualityOffsetScaledLogVariance(10)
   |  |  |     |        Range: 0..65535
   |  |  |     +-- -R-- Unsigned  ieee1588ParentDsGrandmasterPriority1(11)
   |  |  |     |        Range: 0..255
   |  |  |     +-- -R-- Unsigned  ieee1588ParentDsGrandmasterPriority2(12)
   |  |  |     |        Range: 0..255
   |  |  |     +-- -R-- ObjID     ieee1588ParentDsProtocolAddressNetworkProtocol(13)
   |  |  |     |        Textual Convention: Ieee1588NetworkProtocol
   |  |  |     +-- -R-- Unsigned  ieee1588ParentDsProtocolAddressAddressLength(14)
   |  |  |     |        Range: 1..16
   |  |  |     +-- -R-- String    ieee1588ParentDsProtocolAddressAddressField(15)
   |  |  |     |        Textual Convention: PhysAddress
   |  |  |     |        Size: 1..16
   |  |  |     +-- -R-- EnumVal   ieee1588ParentDsSynchronizationUncertain(16)
   |  |  |              Textual Convention: TruthValue
   |  |  |              Values: true(1), false(2)
   |  |  |
   |  |  +--ieee1588TimePropertiesDsTable(4)
   |  |  |  |
   |  |  |  +--ieee1588TimePropertiesDsEntry(1)
   |  |  |     |  Index: ieee1588InstanceIndex
   |  |  |     |
   |  |  |     +-- -R-- Integer32 ieee1588TimePropertiesDsCurrentUtcOffset(2)
   |  |  |     |        Range: -32768..32767
   |  |  |     +-- -R-- EnumVal   ieee1588TimePropertiesDsCurrentUtcOffsetValid(3)
   |  |  |     |        Textual Convention: TruthValue
   |  |  |     |        Values: true(1), false(2)
   |  |  |     +-- -R-- EnumVal   ieee1588TimePropertiesDsLeap59(4)
   |  |  |     |        Textual Convention: TruthValue
   |  |  |     |        Values: true(1), false(2)
   |  |  |     +-- -R-- EnumVal   ieee1588TimePropertiesDsLeap61(5)
   |  |  |     |        Textual Convention: TruthValue
   |  |  |     |        Values: true(1), false(2)
   |  |  |     +-- -R-- EnumVal   ieee1588TimePropertiesDsTimeTraceable(6)
   |  |  |     |        Textual Convention: TruthValue
   |  |  |     |        Values: true(1), false(2)
   |  |  |     +-- -R-- EnumVal   ieee1588TimePropertiesDsFrequencyTraceable(7)
   |  |  |     |        Textual Convention: TruthValue
   |  |  |     |        Values: true(1), false(2)
   |  |  |     +-- -R-- EnumVal   ieee1588TimePropertiesDsPtpTimescale(8)
   |  |  |     |        Textual Convention: TruthValue
   |  |  |     |        Values: true(1), false(2)
   |  |  |     +-- -R-- ObjID     ieee1588TimePropertiesDsTimeSource(9)
   |  |  |              Textual Convention: Ieee1588TimeSource
   |  |  |
   |  |  +--ieee1588DescriptionDsTable(5)
   |  |  |  |
   |  |  |  +--ieee1588DescriptionDsEntry(1)
   |  |  |     |  Index: ieee1588InstanceIndex
   |  |  |     |
   |  |  |     +-- -R-- String    ieee1588DescriptionDsManufacturerIdentity(2)
   |  |  |     |        Textual Convention: PhysAddress
   |  |  |     |        Size: 3
   |  |  |     +-- -R-- String    ieee1588DescriptionDsProductDescription(3)
   |  |  |     |        Textual Convention: SnmpAdminString
   |  |  |     |        Size: 0..64
   |  |  |     +-- -R-- String    ieee1588DescriptionDsProductRevision(4)
   |  |  |     |        Textual Convention: SnmpAdminString
   |  |  |     |        Size: 0..32
   |  |  |     +-- -RW- String    ieee1588DescriptionDsUserDescription(5)
   |  |  |              Textual Convention: SnmpAdminString
   |  |  |              Size: 0..128
   |  |  |
   |  |  +--ieee1588FaultLogDs(6)
   |  |  |  |
   |  |  |  +--ieee1588FaultLogDsGeneralTable(1)
   |  |  |  |  |
   |  |  |  |  +--ieee1588FaultLogDsGeneralEntry(1)
   |  |  |  |     |  Index: ieee1588InstanceIndex
   |  |  |  |     |
   |  |  |  |     +-- -R-- Unsigned  ieee1588FaultLogDsNumberOfFaultRecords(2)
   |  |  |  |     |        Range: 0..65535
   |  |  |  |     +-- -RW- EnumVal   ieee1588FaultLogDsReset(3)
   |  |  |  |              Textual Convention: TruthValue
   |  |  |  |              Values: true(1), false(2)
   |  |  |  |
   |  |  |  +--ieee1588FaultLogDsFaultRecordListTable(2)
   |  |  |     |
   |  |  |     +--ieee1588FaultLogDsFaultRecordListEntry(1)
   |  |  |        |  Index: ieee1588InstanceIndex, ieee1588FaultLogDsFaultRecordListIndex
   |  |  |        |
   |  |  |        +-- ---- Unsigned  ieee1588FaultLogDsFaultRecordListIndex(2)
   |  |  |        +-- -R-- String    ieee1588FaultLogDsFaultRecordListFaultTimeSecondsField(3)
   |  |  |        |        Textual Convention: UInteger48
   |  |  |        |        Size: 6
   |  |  |        +-- -R-- Unsigned  ieee1588FaultLogDsFaultRecordListFaultTimeNanosecondsField(4)
   |  |  |        |        Range: 0..999999999
   |  |  |        +-- -R-- ObjID     ieee1588FaultLogDsFaultRecordListSeverityCode(5)
   |  |  |        |        Textual Convention: Ieee1588SeverityCode
   |  |  |        +-- -R-- String    ieee1588FaultLogDsFaultRecordListFaultName(6)
   |  |  |        |        Textual Convention: SnmpAdminString
   |  |  |        |        Size: 0..255
   |  |  |        +-- -R-- String    ieee1588FaultLogDsFaultRecordListFaultValue(7)
   |  |  |        |        Textual Convention: SnmpAdminString
   |  |  |        |        Size: 0..255
   |  |  |        +-- -R-- String    ieee1588FaultLogDsFaultRecordListFaultDescription(8)
   |  |  |                 Textual Convention: SnmpAdminString
   |  |  |                 Size: 0..255
   |  |  |
   |  |  +--ieee1588NonVolatileStorageDsTable(7)
   |  |  |  |
   |  |  |  +--ieee1588NonVolatileStorageDsEntry(1)
   |  |  |     |  Index: ieee1588InstanceIndex
   |  |  |     |
   |  |  |     +-- -RW- EnumVal   ieee1588NonVolatileStorageDsReset(2)
   |  |  |     |        Textual Convention: TruthValue
   |  |  |     |        Values: true(1), false(2)
   |  |  |     +-- -RW- EnumVal   ieee1588NonVolatileStorageDsSave(3)
   |  |  |              Textual Convention: TruthValue
   |  |  |              Values: true(1), false(2)
   |  |  |
   |  |  +--ieee1588PathTraceDs(8)
   |  |  |  |
   |  |  |  +--ieee1588PathTraceDsTable(1)
   |  |  |  |  |
   |  |  |  |  +--ieee1588PathTraceDsEntry(1)
   |  |  |  |     |  Index: ieee1588InstanceIndex
   |  |  |  |     |
   |  |  |  |     +-- -RW- EnumVal   ieee1588PathTraceDsEnable(2)
   |  |  |  |              Textual Convention: TruthValue
   |  |  |  |              Values: true(1), false(2)
   |  |  |  |
   |  |  |  +--ieee1588PathTraceDsListTable(2)
   |  |  |     |
   |  |  |     +--ieee1588PathTraceDsListEntry(1)
   |  |  |        |  Index: ieee1588InstanceIndex, ieee1588PathTraceDsListIndex
   |  |  |        |
   |  |  |        +-- ---- Unsigned  ieee1588PathTraceDsListIndex(2)
   |  |  |        +-- -R-- String    ieee1588PathTraceDsListClockIdentity(3)
   |  |  |                 Textual Convention: Ieee1588ClockIdentity
   |  |  |                 Size: 8
   |  |  |
   |  |  +--ieee1588AlternateTimeScaleOffsetDs(9)
   |  |  |  |
   |  |  |  +--ieee1588AlternateTimeScaleOffsetDsTable(1)
   |  |  |  |  |
   |  |  |  |  +--ieee1588AlternateTimeScaleOffsetDsEntry(1)
   |  |  |  |     |  Index: ieee1588InstanceIndex
   |  |  |  |     |
   |  |  |  |     +-- -R-- Unsigned  ieee1588AlternateTimeScaleOffsetDsMaxKey(2)
   |  |  |  |              Range: 0..255
   |  |  |  |
   |  |  |  +--ieee1588AlternateTimeScaleOffsetDsListTable(2)
   |  |  |     |
   |  |  |     +--ieee1588AlternateTimeScaleOffsetDsListEntry(1)
   |  |  |        |  Index: ieee1588InstanceIndex, ieee1588AlternateTimeScaleOffsetDsListIndex
   |  |  |        |
   |  |  |        +-- ---- Unsigned  ieee1588AlternateTimeScaleOffsetDsListIndex(2)
   |  |  |        |        Range: 0..255
   |  |  |        +-- CR-- EnumVal   ieee1588AlternateTimeScaleOffsetDsListRowStatus(3)
   |  |  |        |        Textual Convention: RowStatus
   |  |  |        |        Values: active(1), notInService(2), notReady(3), createAndGo(4), createAndWait(5), destroy(6)
   |  |  |        +-- CR-- Unsigned  ieee1588AlternateTimeScaleOffsetDsListKeyField(4)
   |  |  |        |        Range: 0..255
   |  |  |        +-- CR-- EnumVal   ieee1588AlternateTimeScaleOffsetDsListEnable(5)
   |  |  |        |        Textual Convention: TruthValue
   |  |  |        |        Values: true(1), false(2)
   |  |  |        +-- CR-- Integer32 ieee1588AlternateTimeScaleOffsetDsListCurrentOffset(6)
   |  |  |        +-- CR-- Integer32 ieee1588AlternateTimeScaleOffsetDsListJumpSeconds(7)
   |  |  |        +-- CR-- String    ieee1588AlternateTimeScaleOffsetDsListTimeOfNextJump(8)
   |  |  |        |        Textual Convention: UInteger48
   |  |  |        |        Size: 6
   |  |  |        +-- CR-- String    ieee1588AlternateTimeScaleOffsetDsListDisplayName(9)
   |  |  |                 Textual Convention: SnmpAdminString
   |  |  |                 Size: 0..10
   |  |  |
   |  |  +--ieee1588HoldoverUpgradeDsTable(10)
   |  |  |  |
   |  |  |  +--ieee1588HoldoverUpgradeDsEntry(1)
   |  |  |     |  Index: ieee1588InstanceIndex
   |  |  |     |
   |  |  |     +-- -RW- EnumVal   ieee1588HoldoverUpgradeDsEnable(2)
   |  |  |              Textual Convention: TruthValue
   |  |  |              Values: true(1), false(2)
   |  |  |
   |  |  +--ieee1588GrandmasterClusterDs(11)
   |  |  |  |
   |  |  |  +--ieee1588GrandmasterClusterDsTable(1)
   |  |  |  |  |
   |  |  |  |  +--ieee1588GrandmasterClusterDsEntry(1)
   |  |  |  |     |  Index: ieee1588InstanceIndex
   |  |  |  |     |
   |  |  |  |     +-- -R-- Unsigned  ieee1588GrandmasterClusterDsMaxTableSize(2)
   |  |  |  |     |        Range: 0..255
   |  |  |  |     +-- -RW- Integer32 ieee1588GrandmasterClusterDsLogQueryInterval(3)
   |  |  |  |              Textual Convention: Ieee1588LogTimeInterval
   |  |  |  |              Range: -128..127
   |  |  |  |
   |  |  |  +--ieee1588GrandmasterClusterDsPortAddressTable(2)
   |  |  |     |
   |  |  |     +--ieee1588GrandmasterClusterDsPortAddressEntry(1)
   |  |  |        |  Index: ieee1588InstanceIndex, ieee1588GrandmasterClusterDsPortAddressIndex
   |  |  |        |
   |  |  |        +-- ---- Unsigned  ieee1588GrandmasterClusterDsPortAddressIndex(2)
   |  |  |        |        Range: 0..255
   |  |  |        +-- CR-- EnumVal   ieee1588GrandmasterClusterDsPortAddressRowStatus(3)
   |  |  |        |        Textual Convention: RowStatus
   |  |  |        |        Values: active(1), notInService(2), notReady(3), createAndGo(4), createAndWait(5), destroy(6)
   |  |  |        +-- CR-- ObjID     ieee1588GrandmasterClusterDsPortAddressNetworkProtocol(4)
   |  |  |        |        Textual Convention: Ieee1588NetworkProtocol
   |  |  |        +-- CR-- Unsigned  ieee1588GrandmasterClusterDsPortAddressAddressLength(5)
   |  |  |        |        Range: 1..16
   |  |  |        +-- CR-- String    ieee1588GrandmasterClusterDsPortAddressAddressField(6)
   |  |  |                 Textual Convention: PhysAddress
   |  |  |                 Size: 1..16
   |  |  |
   |  |  +--ieee1588AcceptableTimeTransmitterTableDs(12)
   |  |  |  |
   |  |  |  +--ieee1588AcceptableTimeTransmitterTableDsTable(1)
   |  |  |  |  |
   |  |  |  |  +--ieee1588AcceptableTimeTransmitterTableDsEntry(1)
   |  |  |  |     |  Index: ieee1588InstanceIndex
   |  |  |  |     |
   |  |  |  |     +-- -R-- Unsigned  ieee1588AcceptableTimeTransmitterTableDsMaxTableSize(2)
   |  |  |  |              Range: 0..65535
   |  |  |  |
   |  |  |  +--ieee1588AcceptableTimeTransmitterTableDsListTable(2)
   |  |  |     |
   |  |  |     +--ieee1588AcceptableTimeTransmitterTableDsListEntry(1)
   |  |  |        |  Index: ieee1588InstanceIndex, ieee1588AcceptableTimeTransmitterTableDsListIndex
   |  |  |        |
   |  |  |        +-- ---- Unsigned  ieee1588AcceptableTimeTransmitterTableDsListIndex(2)
   |  |  |        |        Range: 0..65535
   |  |  |        +-- CR-- EnumVal   ieee1588AcceptableTimeTransmitterTableDsListRowStatus(3)
   |  |  |        |        Textual Convention: RowStatus
   |  |  |        |        Values: active(1), notInService(2), notReady(3), createAndGo(4), createAndWait(5), destroy(6)
   |  |  |        +-- CR-- String    ieee1588AcceptableTimeTransmitterTableDsListAccPortIdClockId(4)
   |  |  |        |        Textual Convention: Ieee1588ClockIdentity
   |  |  |        |        Size: 8
   |  |  |        +-- CR-- Unsigned  ieee1588AcceptableTimeTransmitterTableDsListAccPortIdPortNumber(5)
   |  |  |        |        Range: 0..65535
   |  |  |        +-- CR-- Unsigned  ieee1588AcceptableTimeTransmitterTableDsListAlternatePriority1(6)
   |  |  |                 Range: 0..255
   |  |  |
   |  |  +--ieee1588PerfMonDs(13)
   |  |  |  |
   |  |  |  +--ieee1588PerfMonDsTable(1)
   |  |  |  |  |
   |  |  |  |  +--ieee1588PerfMonDsEntry(1)
   |  |  |  |     |  Index: ieee1588InstanceIndex
   |  |  |  |     |
   |  |  |  |     +-- -RW- EnumVal   ieee1588PerfMonDsEnable(2)
   |  |  |  |              Textual Convention: TruthValue
   |  |  |  |              Values: true(1), false(2)
   |  |  |  |
   |  |  |  +--ieee1588PerfMonDsRecordListTable(2)
   |  |  |     |
   |  |  |     +--ieee1588PerfMonDsRecordListEntry(1)
   |  |  |        |  Index: ieee1588InstanceIndex, ieee1588PerfMonDsRecordListIndex
   |  |  |        |
   |  |  |        +-- ---- Unsigned  ieee1588PerfMonDsRecordListIndex(2)
   |  |  |        |        Range: 0..98
   |  |  |        +-- -R-- EnumVal   ieee1588PerfMonDsRecordListMeasurementValid(3)
   |  |  |        |        Textual Convention: TruthValue
   |  |  |        |        Values: true(1), false(2)
   |  |  |        +-- -R-- EnumVal   ieee1588PerfMonDsRecordListPeriodComplete(4)
   |  |  |        |        Textual Convention: TruthValue
   |  |  |        |        Values: true(1), false(2)
   |  |  |        +-- -R-- TimeTicks ieee1588PerfMonDsRecordListPmTime(5)
   |  |  |        |        Textual Convention: TimeStamp
   |  |  |        +-- -R-- String    ieee1588PerfMonDsRecordListAverageTtTrDelay(6)
   |  |  |        |        Textual Convention: Ieee1588TimeInterval
   |  |  |        |        Size: 8
   |  |  |        +-- -R-- String    ieee1588PerfMonDsRecordListMinTtTrDelay(7)
   |  |  |        |        Textual Convention: Ieee1588TimeInterval
   |  |  |        |        Size: 8
   |  |  |        +-- -R-- String    ieee1588PerfMonDsRecordListMaxTtTrDelay(8)
   |  |  |        |        Textual Convention: Ieee1588TimeInterval
   |  |  |        |        Size: 8
   |  |  |        +-- -R-- String    ieee1588PerfMonDsRecordListStdDevTtTrDelay(9)
   |  |  |        |        Textual Convention: Ieee1588TimeInterval
   |  |  |        |        Size: 8
   |  |  |        +-- -R-- String    ieee1588PerfMonDsRecordListAverageTrTtDelay(10)
   |  |  |        |        Textual Convention: Ieee1588TimeInterval
   |  |  |        |        Size: 8
   |  |  |        +-- -R-- String    ieee1588PerfMonDsRecordListMinTrTtDelay(11)
   |  |  |        |        Textual Convention: Ieee1588TimeInterval
   |  |  |        |        Size: 8
   |  |  |        +-- -R-- String    ieee1588PerfMonDsRecordListMaxTrTtDelay(12)
   |  |  |        |        Textual Convention: Ieee1588TimeInterval
   |  |  |        |        Size: 8
   |  |  |        +-- -R-- String    ieee1588PerfMonDsRecordListStdDevTrTtDelay(13)
   |  |  |        |        Textual Convention: Ieee1588TimeInterval
   |  |  |        |        Size: 8
   |  |  |        +-- -R-- String    ieee1588PerfMonDsRecordListAverageMeanPathDelay(14)
   |  |  |        |        Textual Convention: Ieee1588TimeInterval
   |  |  |        |        Size: 8
   |  |  |        +-- -R-- String    ieee1588PerfMonDsRecordListMinMeanPathDelay(15)
   |  |  |        |        Textual Convention: Ieee1588TimeInterval
   |  |  |        |        Size: 8
   |  |  |        +-- -R-- String    ieee1588PerfMonDsRecordListMaxMeanPathDelay(16)
   |  |  |        |        Textual Convention: Ieee1588TimeInterval
   |  |  |        |        Size: 8
   |  |  |        +-- -R-- String    ieee1588PerfMonDsRecordListStdDevMeanPathDelay(17)
   |  |  |        |        Textual Convention: Ieee1588TimeInterval
   |  |  |        |        Size: 8
   |  |  |        +-- -R-- String    ieee1588PerfMonDsRecordListAverageOffsetFromTt(18)
   |  |  |        |        Textual Convention: Ieee1588TimeInterval
   |  |  |        |        Size: 8
   |  |  |        +-- -R-- String    ieee1588PerfMonDsRecordListMinOffsetFromTt(19)
   |  |  |        |        Textual Convention: Ieee1588TimeInterval
   |  |  |        |        Size: 8
   |  |  |        +-- -R-- String    ieee1588PerfMonDsRecordListMaxOffsetFromTt(20)
   |  |  |        |        Textual Convention: Ieee1588TimeInterval
   |  |  |        |        Size: 8
   |  |  |        +-- -R-- String    ieee1588PerfMonDsRecordListStdDevOffsetFromTt(21)
   |  |  |                 Textual Convention: Ieee1588TimeInterval
   |  |  |                 Size: 8
   |  |  |
   |  |  +--ieee1588EnhancedSynchronizationAccuracyMetricsDsTable(14)
   |  |  |  |
   |  |  |  +--ieee1588EnhancedSynchronizationAccuracyMetricsDsEntry(1)
   |  |  |     |  Index: ieee1588InstanceIndex
   |  |  |     |
   |  |  |     +-- -RW- EnumVal   ieee1588EnhancedSynchronizationAccuracyMetricsDsEnable(2)
   |  |  |              Textual Convention: TruthValue
   |  |  |              Values: true(1), false(2)
   |  |  |
   |  |  +--ieee1588PortList(15)
   |  |     |
   |  |     +--ieee1588PortDsTable(1)
   |  |     |  |
   |  |     |  +--ieee1588PortDsEntry(1)
   |  |     |     |  Index: ieee1588InstanceIndex, ieee1588PortIndex
   |  |     |     |
   |  |     |     +-- -R-- String    ieee1588PortDsPortIdentityClockIdentity(3)
   |  |     |     |        Textual Convention: Ieee1588ClockIdentity
   |  |     |     |        Size: 8
   |  |     |     +-- -R-- Unsigned  ieee1588PortDsPortIdentityPortNumber(4)
   |  |     |     |        Range: 0..65535
   |  |     |     +-- -R-- ObjID     ieee1588PortDsPortState(5)
   |  |     |     |        Textual Convention: Ieee1588PortState
   |  |     |     +-- -R-- Integer32 ieee1588PortDsLogMinDelayReqInterval(6)
   |  |     |     |        Textual Convention: Ieee1588LogTimeInterval
   |  |     |     |        Range: -128..127
   |  |     |     +-- -R-- String    ieee1588PortDsMeanLinkDelay(7)
   |  |     |     |        Textual Convention: Ieee1588TimeInterval
   |  |     |     |        Size: 8
   |  |     |     +-- -RW- Integer32 ieee1588PortDsLogAnnounceInterval(8)
   |  |     |     |        Textual Convention: Ieee1588LogTimeInterval
   |  |     |     |        Range: -128..127
   |  |     |     +-- -RW- Unsigned  ieee1588PortDsAnnounceReceiptTimeout(9)
   |  |     |     |        Range: 0..255
   |  |     |     +-- -RW- Integer32 ieee1588PortDsLogSyncInterval(10)
   |  |     |     |        Textual Convention: Ieee1588LogTimeInterval
   |  |     |     |        Range: -128..127
   |  |     |     +-- -RW- ObjID     ieee1588PortDsDelayMechanism(11)
   |  |     |     |        Textual Convention: Ieee1588DelayMechanism
   |  |     |     +-- -RW- Integer32 ieee1588PortDsLogMinPdelayReqInterval(12)
   |  |     |     |        Textual Convention: Ieee1588LogTimeInterval
   |  |     |     |        Range: -128..127
   |  |     |     +-- -RW- Unsigned  ieee1588PortDsVersionNumber(13)
   |  |     |     |        Range: 0..15
   |  |     |     +-- -RW- Unsigned  ieee1588PortDsMinorVersionNumber(14)
   |  |     |     |        Range: 0..15
   |  |     |     +-- -RW- String    ieee1588PortDsDelayAsymmetry(15)
   |  |     |     |        Textual Convention: Ieee1588TimeInterval
   |  |     |     |        Size: 8
   |  |     |     +-- -RW- EnumVal   ieee1588PortDsPortEnable(16)
   |  |     |     |        Textual Convention: TruthValue
   |  |     |     |        Values: true(1), false(2)
   |  |     |     +-- -RW- EnumVal   ieee1588PortDsTimeTransmitterOnly(17)
   |  |     |              Textual Convention: TruthValue
   |  |     |              Values: true(1), false(2)
   |  |     |
   |  |     +--ieee1588TimestampCorrectionPortDsTable(2)
   |  |     |  |
   |  |     |  +--ieee1588TimestampCorrectionPortDsEntry(1)
   |  |     |     |  Index: ieee1588InstanceIndex, ieee1588PortIndex
   |  |     |     |
   |  |     |     +-- -RW- String    ieee1588TimestampCorrectionPortDsEgressLatency(3)
   |  |     |     |        Textual Convention: Ieee1588TimeInterval
   |  |     |     |        Size: 8
   |  |     |     +-- -RW- String    ieee1588TimestampCorrectionPortDsIngressLatency(4)
   |  |     |              Textual Convention: Ieee1588TimeInterval
   |  |     |              Size: 8
   |  |     |
   |  |     +--ieee1588AsymmetryCorrectionPortDsTable(3)
   |  |     |  |
   |  |     |  +--ieee1588AsymmetryCorrectionPortDsEntry(1)
   |  |     |     |  Index: ieee1588InstanceIndex, ieee1588PortIndex
   |  |     |     |
   |  |     |     +-- -RW- EnumVal   ieee1588AsymmetryCorrectionPortDsEnable(3)
   |  |     |     |        Textual Convention: TruthValue
   |  |     |     |        Values: true(1), false(2)
   |  |     |     +-- -RW- String    ieee1588AsymmetryCorrectionPortDsConstantAsymmetry(4)
   |  |     |     |        Textual Convention: Ieee1588TimeInterval
   |  |     |     |        Size: 8
   |  |     |     +-- -RW- String    ieee1588AsymmetryCorrectionPortDsScaledDelayCoefficient(5)
   |  |     |              Textual Convention: Ieee1588RelativeDifference
   |  |     |              Size: 8
   |  |     |
   |  |     +--ieee1588DescriptionPortDsTable(4)
   |  |     |  |
   |  |     |  +--ieee1588DescriptionPortDsEntry(1)
   |  |     |     |  Index: ieee1588InstanceIndex, ieee1588PortIndex
   |  |     |     |
   |  |     |     +-- -R-- String    ieee1588DescriptionPortDsProfileIdentifier(3)
   |  |     |     |        Textual Convention: PhysAddress
   |  |     |     |        Size: 6
   |  |     |     +-- -R-- ObjID     ieee1588DescriptionPortDsProtocolAddressNetworkProtocol(4)
   |  |     |     |        Textual Convention: Ieee1588NetworkProtocol
   |  |     |     +-- -R-- Unsigned  ieee1588DescriptionPortDsProtocolAddressAddressLength(5)
   |  |     |     |        Range: 1..16
   |  |     |     +-- -R-- String    ieee1588DescriptionPortDsProtocolAddressAddressField(6)
   |  |     |              Textual Convention: PhysAddress
   |  |     |              Size: 1..16
   |  |     |
   |  |     +--ieee1588UnicastNegotiationPortDsTable(5)
   |  |     |  |
   |  |     |  +--ieee1588UnicastNegotiationPortDsEntry(1)
   |  |     |     |  Index: ieee1588InstanceIndex, ieee1588PortIndex
   |  |     |     |
   |  |     |     +-- -RW- EnumVal   ieee1588UnicastNegotiationPortDsEnable(3)
   |  |     |              Textual Convention: TruthValue
   |  |     |              Values: true(1), false(2)
   |  |     |
   |  |     +--ieee1588AlternateTtPortDsTable(6)
   |  |     |  |
   |  |     |  +--ieee1588AlternateTtPortDsEntry(1)
   |  |     |     |  Index: ieee1588InstanceIndex, ieee1588PortIndex
   |  |     |     |
   |  |     |     +-- -RW- Unsigned  ieee1588AlternateTtPortDsNumberOfAlternateTimeTransmitters(3)
   |  |     |     |        Range: 0..255
   |  |     |     +-- -RW- EnumVal   ieee1588AlternateTtPortDsTransmitAlternateMulticastSync(4)
   |  |     |     |        Textual Convention: TruthValue
   |  |     |     |        Values: true(1), false(2)
   |  |     |     +-- -RW- Integer32 ieee1588AlternateTtPortDsLogAlternateMulticastSyncInterval(5)
   |  |     |              Textual Convention: Ieee1588LogTimeInterval
   |  |     |              Range: -128..127
   |  |     |
   |  |     +--ieee1588UnicastDiscoveryPortDs(7)
   |  |     |  |
   |  |     |  +--ieee1588UnicastDiscoveryPortDsTable(1)
   |  |     |  |  |
   |  |     |  |  +--ieee1588UnicastDiscoveryPortDsEntry(1)
   |  |     |  |     |  Index: ieee1588InstanceIndex, ieee1588PortIndex
   |  |     |  |     |
   |  |     |  |     +-- -R-- Unsigned  ieee1588UnicastDiscoveryPortDsMaxTableSize(3)
   |  |     |  |     |        Range: 0..65535
   |  |     |  |     +-- -RW- Integer32 ieee1588UnicastDiscoveryPortDsLogQueryInterval(4)
   |  |     |  |              Textual Convention: Ieee1588LogTimeInterval
   |  |     |  |              Range: -128..127
   |  |     |  |
   |  |     |  +--ieee1588UnicastDiscoveryPortDsPortAddressTable(2)
   |  |     |     |
   |  |     |     +--ieee1588UnicastDiscoveryPortDsPortAddressEntry(1)
   |  |     |        |  Index: ieee1588InstanceIndex, ieee1588PortIndex, ieee1588UnicastDiscoveryPortDsPortAddressIndex
   |  |     |        |
   |  |     |        +-- ---- Unsigned  ieee1588UnicastDiscoveryPortDsPortAddressIndex(3)
   |  |     |        |        Range: 0..65535
   |  |     |        +-- CR-- EnumVal   ieee1588UnicastDiscoveryPortDsPortRowStatus(4)
   |  |     |        |        Textual Convention: RowStatus
   |  |     |        |        Values: active(1), notInService(2), notReady(3), createAndGo(4), createAndWait(5), destroy(6)
   |  |     |        +-- CR-- ObjID     ieee1588UnicastDiscoveryPortDsPortAddressNetworkProtocol(5)
   |  |     |        |        Textual Convention: Ieee1588NetworkProtocol
   |  |     |        +-- CR-- Unsigned  ieee1588UnicastDiscoveryPortDsPortAddressAddressLength(6)
   |  |     |        |        Range: 1..16
   |  |     |        +-- CR-- String    ieee1588UnicastDiscoveryPortDsPortAddressAddressField(7)
   |  |     |                 Textual Convention: PhysAddress
   |  |     |                 Size: 1..16
   |  |     |
   |  |     +--ieee1588AcceptableTimeTransmitterPortDsTable(8)
   |  |     |  |
   |  |     |  +--ieee1588AcceptableTimeTransmitterPortDsEntry(1)
   |  |     |     |  Index: ieee1588InstanceIndex, ieee1588PortIndex
   |  |     |     |
   |  |     |     +-- -RW- EnumVal   ieee1588AcceptableTimeTransmitterPortDsEnable(3)
   |  |     |              Textual Convention: TruthValue
   |  |     |              Values: true(1), false(2)
   |  |     |
   |  |     +--ieee1588L1SyncBasicPortDsTable(9)
   |  |     |  |
   |  |     |  +--ieee1588L1SyncBasicPortDsEntry(1)
   |  |     |     |  Index: ieee1588InstanceIndex, ieee1588PortIndex
   |  |     |     |
   |  |     |     +-- -RW- EnumVal   ieee1588L1SyncBasicPortDsL1SyncEnabled(3)
   |  |     |     |        Textual Convention: TruthValue
   |  |     |     |        Values: true(1), false(2)
   |  |     |     +-- -RW- EnumVal   ieee1588L1SyncBasicPortDsTxCoherentIsRequired(4)
   |  |     |     |        Textual Convention: TruthValue
   |  |     |     |        Values: true(1), false(2)
   |  |     |     +-- -RW- EnumVal   ieee1588L1SyncBasicPortDsRxCoherentIsRequired(5)
   |  |     |     |        Textual Convention: TruthValue
   |  |     |     |        Values: true(1), false(2)
   |  |     |     +-- -RW- EnumVal   ieee1588L1SyncBasicPortDsCongruentIsRequired(6)
   |  |     |     |        Textual Convention: TruthValue
   |  |     |     |        Values: true(1), false(2)
   |  |     |     +-- -RW- EnumVal   ieee1588L1SyncBasicPortDsOptParamsEnabled(7)
   |  |     |     |        Textual Convention: TruthValue
   |  |     |     |        Values: true(1), false(2)
   |  |     |     +-- -RW- Integer32 ieee1588L1SyncBasicPortDsLogL1SyncInterval(8)
   |  |     |     |        Textual Convention: Ieee1588LogTimeInterval
   |  |     |     |        Range: -128..127
   |  |     |     +-- -RW- Unsigned  ieee1588L1SyncBasicPortDsL1SyncReceiptTimeout(9)
   |  |     |     |        Range: 0..255
   |  |     |     +-- -R-- EnumVal   ieee1588L1SyncBasicPortDsL1SyncLinkAlive(10)
   |  |     |     |        Textual Convention: TruthValue
   |  |     |     |        Values: true(1), false(2)
   |  |     |     +-- -R-- EnumVal   ieee1588L1SyncBasicPortDsIsTxCoherent(11)
   |  |     |     |        Textual Convention: TruthValue
   |  |     |     |        Values: true(1), false(2)
   |  |     |     +-- -R-- EnumVal   ieee1588L1SyncBasicPortDsIsRxCoherent(12)
   |  |     |     |        Textual Convention: TruthValue
   |  |     |     |        Values: true(1), false(2)
   |  |     |     +-- -R-- EnumVal   ieee1588L1SyncBasicPortDsIsCongruent(13)
   |  |     |     |        Textual Convention: TruthValue
   |  |     |     |        Values: true(1), false(2)
   |  |     |     +-- -R-- ObjID     ieee1588L1SyncBasicPortDsL1SyncState(14)
   |  |     |     |        Textual Convention: Ieee1588L1SyncState
   |  |     |     +-- -R-- EnumVal   ieee1588L1SyncBasicPortDsPeerTxCoherentIsRequired(15)
   |  |     |     |        Textual Convention: TruthValue
   |  |     |     |        Values: true(1), false(2)
   |  |     |     +-- -R-- EnumVal   ieee1588L1SyncBasicPortDsPeerRxCoherentIsRequired(16)
   |  |     |     |        Textual Convention: TruthValue
   |  |     |     |        Values: true(1), false(2)
   |  |     |     +-- -R-- EnumVal   ieee1588L1SyncBasicPortDsPeerCongruentIsRequired(17)
   |  |     |     |        Textual Convention: TruthValue
   |  |     |     |        Values: true(1), false(2)
   |  |     |     +-- -R-- EnumVal   ieee1588L1SyncBasicPortDsPeerIsTxCoherent(18)
   |  |     |     |        Textual Convention: TruthValue
   |  |     |     |        Values: true(1), false(2)
   |  |     |     +-- -R-- EnumVal   ieee1588L1SyncBasicPortDsPeerIsRxCoherent(19)
   |  |     |     |        Textual Convention: TruthValue
   |  |     |     |        Values: true(1), false(2)
   |  |     |     +-- -R-- EnumVal   ieee1588L1SyncBasicPortDsPeerIsCongruent(20)
   |  |     |              Textual Convention: TruthValue
   |  |     |              Values: true(1), false(2)
   |  |     |
   |  |     +--ieee1588L1SyncOptParamsPortDsTable(10)
   |  |     |  |
   |  |     |  +--ieee1588L1SyncOptParamsPortDsEntry(1)
   |  |     |     |  Index: ieee1588InstanceIndex, ieee1588PortIndex
   |  |     |     |
   |  |     |     +-- -RW- EnumVal   ieee1588L1SyncOptParamsPortDsTimestampsCorrectedTx(3)
   |  |     |     |        Textual Convention: TruthValue
   |  |     |     |        Values: true(1), false(2)
   |  |     |     +-- -R-- EnumVal   ieee1588L1SyncOptParamsPortDsPhaseOffsetTxValid(4)
   |  |     |     |        Textual Convention: TruthValue
   |  |     |     |        Values: true(1), false(2)
   |  |     |     +-- -R-- EnumVal   ieee1588L1SyncOptParamsPortDsFrequencyOffsetTxValid(5)
   |  |     |     |        Textual Convention: TruthValue
   |  |     |     |        Values: true(1), false(2)
   |  |     |     +-- -R-- String    ieee1588L1SyncOptParamsPortDsPhaseOffsetTx(6)
   |  |     |     |        Textual Convention: Ieee1588TimeInterval
   |  |     |     |        Size: 8
   |  |     |     +-- -R-- String    ieee1588L1SyncOptParamsPortDsPhaseOffsetTxTsSecondsField(7)
   |  |     |     |        Textual Convention: UInteger48
   |  |     |     |        Size: 6
   |  |     |     +-- -R-- Unsigned  ieee1588L1SyncOptParamsPortDsPhaseOffsetTxTsNanosecondsField(8)
   |  |     |     |        Range: 0..999999999
   |  |     |     +-- -R-- String    ieee1588L1SyncOptParamsPortDsFrequencyOffsetTx(9)
   |  |     |     |        Textual Convention: Ieee1588TimeInterval
   |  |     |     |        Size: 8
   |  |     |     +-- -R-- String    ieee1588L1SyncOptParamsPortDsFrequencyOffsetTxTsSecondsField(10)
   |  |     |     |        Textual Convention: UInteger48
   |  |     |     |        Size: 6
   |  |     |     +-- -R-- Unsigned  ieee1588L1SyncOptParamsPortDsFrequencyOffsetTxTsNanosecondsField(11)
   |  |     |              Range: 0..999999999
   |  |     |
   |  |     +--ieee1588CommunicationCapabilitiesPortDsTable(11)
   |  |     |  |
   |  |     |  +--ieee1588CommunicationCapabilitiesPortDsEntry(1)
   |  |     |     |  Index: ieee1588InstanceIndex, ieee1588PortIndex
   |  |     |     |
   |  |     |     +-- -R-- EnumVal   ieee1588CommunicationCapabilitiesPortDsSyncCapMulticastCap(3)
   |  |     |     |        Textual Convention: TruthValue
   |  |     |     |        Values: true(1), false(2)
   |  |     |     +-- -R-- EnumVal   ieee1588CommunicationCapabilitiesPortDsSyncCapUnicastCap(4)
   |  |     |     |        Textual Convention: TruthValue
   |  |     |     |        Values: true(1), false(2)
   |  |     |     +-- -R-- EnumVal   ieee1588CommunicationCapabilitiesPortDsSyncCapUnicastNegCap(5)
   |  |     |     |        Textual Convention: TruthValue
   |  |     |     |        Values: true(1), false(2)
   |  |     |     +-- -R-- EnumVal   ieee1588CommunicationCapabilitiesPortDsSyncCapUnicastNegReq(6)
   |  |     |     |        Textual Convention: TruthValue
   |  |     |     |        Values: true(1), false(2)
   |  |     |     +-- -R-- EnumVal   ieee1588CommunicationCapabilitiesPortDsDelayRespCapMulticastCap(7)
   |  |     |     |        Textual Convention: TruthValue
   |  |     |     |        Values: true(1), false(2)
   |  |     |     +-- -R-- EnumVal   ieee1588CommunicationCapabilitiesPortDsDelayRespCapUnicastCap(8)
   |  |     |     |        Textual Convention: TruthValue
   |  |     |     |        Values: true(1), false(2)
   |  |     |     +-- -R-- EnumVal   ieee1588CommunicationCapabilitiesPortDsDelayRespCapUnicastNegCap(9)
   |  |     |     |        Textual Convention: TruthValue
   |  |     |     |        Values: true(1), false(2)
   |  |     |     +-- -R-- EnumVal   ieee1588CommunicationCapabilitiesPortDsDelayRespCapUnicastNegReq(10)
   |  |     |              Textual Convention: TruthValue
   |  |     |              Values: true(1), false(2)
   |  |     |
   |  |     +--ieee1588PerfMonPortDs(12)
   |  |     |  |
   |  |     |  +--ieee1588PerfMonPortDsRecordListPdTable(1)
   |  |     |  |  |
   |  |     |  |  +--ieee1588PerfMonPortDsRecordListPdEntry(1)
   |  |     |  |     |  Index: ieee1588InstanceIndex, ieee1588PortIndex, ieee1588PerfMonPortDsRecordListPdIndex
   |  |     |  |     |
   |  |     |  |     +-- ---- Unsigned  ieee1588PerfMonPortDsRecordListPdIndex(3)
   |  |     |  |     |        Range: 0..98
   |  |     |  |     +-- -R-- TimeTicks ieee1588PerfMonPortDsRecordListPdPmTime(4)
   |  |     |  |     |        Textual Convention: TimeStamp
   |  |     |  |     +-- -R-- String    ieee1588PerfMonPortDsRecordListPdAverMeanLinkDelay(5)
   |  |     |  |     |        Textual Convention: Ieee1588TimeInterval
   |  |     |  |     |        Size: 8
   |  |     |  |     +-- -R-- String    ieee1588PerfMonPortDsRecordListPdMinMeanLinkDelay(6)
   |  |     |  |     |        Textual Convention: Ieee1588TimeInterval
   |  |     |  |     |        Size: 8
   |  |     |  |     +-- -R-- String    ieee1588PerfMonPortDsRecordListPdMaxMeanLinkDelay(7)
   |  |     |  |     |        Textual Convention: Ieee1588TimeInterval
   |  |     |  |     |        Size: 8
   |  |     |  |     +-- -R-- String    ieee1588PerfMonPortDsRecordListPdStdDevMLinkDelay(8)
   |  |     |  |              Textual Convention: Ieee1588TimeInterval
   |  |     |  |              Size: 8
   |  |     |  |
   |  |     |  +--ieee1588PerfMonPortDsRecordListTable(2)
   |  |     |     |
   |  |     |     +--ieee1588PerfMonPortDsRecordListEntry(1)
   |  |     |        |  Index: ieee1588InstanceIndex, ieee1588PortIndex, ieee1588PerfMonPortDsRecordListIndex
   |  |     |        |
   |  |     |        +-- ---- Unsigned  ieee1588PerfMonPortDsRecordListIndex(3)
   |  |     |        |        Range: 0..98
   |  |     |        +-- -R-- TimeTicks ieee1588PerfMonPortDsRecordListPmTime(4)
   |  |     |        |        Textual Convention: TimeStamp
   |  |     |        +-- -R-- Counter   ieee1588PerfMonPortDsRecordListAnnounceTx(5)
   |  |     |        +-- -R-- Counter   ieee1588PerfMonPortDsRecordListAnnounceRx(6)
   |  |     |        +-- -R-- Counter   ieee1588PerfMonPortDsRecordListAnnounceForeignTtRx(7)
   |  |     |        +-- -R-- Counter   ieee1588PerfMonPortDsRecordListSyncTx(8)
   |  |     |        +-- -R-- Counter   ieee1588PerfMonPortDsRecordListSyncRx(9)
   |  |     |        +-- -R-- Counter   ieee1588PerfMonPortDsRecordListFollowUpTx(10)
   |  |     |        +-- -R-- Counter   ieee1588PerfMonPortDsRecordListFollowUpRx(11)
   |  |     |        +-- -R-- Counter   ieee1588PerfMonPortDsRecordListDelayReqTx(12)
   |  |     |        +-- -R-- Counter   ieee1588PerfMonPortDsRecordListDelayReqRx(13)
   |  |     |        +-- -R-- Counter   ieee1588PerfMonPortDsRecordListDelayRespTx(14)
   |  |     |        +-- -R-- Counter   ieee1588PerfMonPortDsRecordListDelayRespRx(15)
   |  |     |        +-- -R-- Counter   ieee1588PerfMonPortDsRecordListPDelayReqTx(16)
   |  |     |        +-- -R-- Counter   ieee1588PerfMonPortDsRecordListPDelayReqRx(17)
   |  |     |        +-- -R-- Counter   ieee1588PerfMonPortDsRecordListPDelayRespTx(18)
   |  |     |        +-- -R-- Counter   ieee1588PerfMonPortDsRecordListPDelayRespRx(19)
   |  |     |        +-- -R-- Counter   ieee1588PerfMonPortDsRecordListPDelayRespFollowUpTx(20)
   |  |     |        +-- -R-- Counter   ieee1588PerfMonPortDsRecordListPDelayRespFollowUpRx(21)
   |  |     |
   |  |     +--ieee1588TrMonitoringPortDsTable(13)
   |  |     |  |
   |  |     |  +--ieee1588TrMonitoringPortDsEntry(1)
   |  |     |     |  Index: ieee1588InstanceIndex, ieee1588PortIndex
   |  |     |     |
   |  |     |     +-- -RW- BitString ieee1588TrMonitoringPortDsTrEventMonEnable(3)
   |  |     |     |        Values: ieee1588TrMonitoringPortDsTrEventMonEnableTrRxSyncTim(0), ieee1588TrMonitoringPortDsTrEventMonEnableTrRxSyncComp(1), ieee1588TrMonitoringPortDsTrEventMonEnableTrTxEventTsD(2)
   |  |     |     +-- -RW- Unsigned  ieee1588TrMonitoringPortDsTrEventMonEventsPerRxSyncTimTLV(4)
   |  |     |     |        Range: 0..255
   |  |     |     +-- -RW- Unsigned  ieee1588TrMonitoringPortDsTrEventMonEventsPerRxSyncCompTLV(5)
   |  |     |     |        Range: 0..255
   |  |     |     +-- -RW- Unsigned  ieee1588TrMonitoringPortDsTrEventMonEventsPerTxEventTsTLV(6)
   |  |     |     |        Range: 0..255
   |  |     |     +-- -RW- ObjID     ieee1588TrMonitoringPortDsTrEventMonTxEventType(7)
   |  |     |     |        Textual Convention: Ieee1588MessageType
   |  |     |     +-- -RW- Unsigned  ieee1588TrMonitoringPortDsTrEventMonRxSyncTimEventMsgM(8)
   |  |     |     |        Range: 0..255
   |  |     |     +-- -RW- Unsigned  ieee1588TrMonitoringPortDsTrEventMonRxSyncCompEventMsgM(9)
   |  |     |     |        Range: 0..255
   |  |     |     +-- -RW- Unsigned  ieee1588TrMonitoringPortDsTrEventMonTxEventTsEventMsgM(10)
   |  |     |              Range: 0..255
   |  |     |
   |  |     +--ieee1588CommonServicesPortDsTable(14)
   |  |     |  |
   |  |     |  +--ieee1588CommonServicesPortDsEntry(1)
   |  |     |     |  Index: ieee1588InstanceIndex, ieee1588PortIndex
   |  |     |     |
   |  |     |     +-- -R-- Unsigned  ieee1588CommonServicesPortDsCmldsLinkPortPortNumber(3)
   |  |     |              Range: 0..65535
   |  |     |
   |  |     +--ieee1588ExternalPortConfigurationPortDsTable(15)
   |  |        |
   |  |        +--ieee1588ExternalPortConfigurationPortDsEntry(1)
   |  |           |  Index: ieee1588InstanceIndex, ieee1588PortIndex
   |  |           |
   |  |           +-- -RW- ObjID     ieee1588ExternalPortConfigurationPortDsDesiredState(3)
   |  |                    Textual Convention: Ieee1588PortState
   |  |
   |  +--ieee1588TcDefaultDs(3)
   |  |  |
   |  |  +-- -R-- String    ieee1588TcDefaultDsClockIdentity(1)
   |  |  |        Textual Convention: Ieee1588ClockIdentity
   |  |  |        Size: 8
   |  |  +-- -R-- Unsigned  ieee1588TcDefaultDsNumberPorts(2)
   |  |  |        Range: 0..65535
   |  |  +-- -RW- ObjID     ieee1588TcDefaultDsDelayMechanism(3)
   |  |  |        Textual Convention: Ieee1588DelayMechanism
   |  |  +-- -RW- Unsigned  ieee1588TcDefaultDsPrimaryDomain(4)
   |  |           Range: 0..255
   |  |
   |  +--ieee1588TcPortList(4)
   |  |  |
   |  |  +--ieee1588TcPortDsTable(1)
   |  |     |
   |  |     +--ieee1588TcPortDsEntry(1)
   |  |        |  Index: ieee1588TcLocalPortIndex
   |  |        |
   |  |        +-- ---- Unsigned  ieee1588TcLocalPortIndex(1)
   |  |        |        Range: 1..65534
   |  |        +-- -R-- Integer32 ieee1588TcPortDsLocalPortIfIndex(2)
   |  |        |        Textual Convention: InterfaceIndexOrZero
   |  |        |        Range: 0..2147483647
   |  |        +-- -R-- String    ieee1588TcPortDsPortIdentityClockIdentity(3)
   |  |        |        Textual Convention: Ieee1588ClockIdentity
   |  |        |        Size: 8
   |  |        +-- -R-- Unsigned  ieee1588TcPortDsPortIdentityPortNumber(4)
   |  |        |        Range: 0..65535
   |  |        +-- -R-- Integer32 ieee1588TcPortDsLogMinPdelayReqInterv(5)
   |  |        |        Textual Convention: Ieee1588LogTimeInterval
   |  |        |        Range: -128..127
   |  |        +-- -R-- EnumVal   ieee1588TcPortDsFaultyFlag(6)
   |  |        |        Textual Convention: TruthValue
   |  |        |        Values: true(1), false(2)
   |  |        +-- -R-- String    ieee1588TcPortDsPeerMeanPathDelay(7)
   |  |                 Textual Convention: Ieee1588TimeInterval
   |  |                 Size: 8
   |  |
   |  +--ieee1588CommonServices(5)
   |  |  |
   |  |  +--ieee1588CommonMeanLinkDelayService(1)
   |  |     |
   |  |     +--ieee1588CmldsDefaultDs(1)
   |  |     |  |
   |  |     |  +-- -R-- String    ieee1588CmldsDefaultDsClockIdentity(1)
   |  |     |  |        Textual Convention: Ieee1588ClockIdentity
   |  |     |  |        Size: 8
   |  |     |  +-- -R-- Unsigned  ieee1588CmldsDefaultDsNumberLinkPorts(2)
   |  |     |           Range: 0..65535
   |  |     |
   |  |     +--ieee1588CmldsLinkPortList(2)
   |  |        |
   |  |        +--ieee1588CmldsLinkPortDsTable(1)
   |  |        |  |
   |  |        |  +--ieee1588CmldsLinkPortDsEntry(1)
   |  |        |     |  Index: ieee1588LinkPortIndex
   |  |        |     |
   |  |        |     +-- ---- Unsigned  ieee1588LinkPortIndex(1)
   |  |        |     |        Range: 1..65534
   |  |        |     +-- -R-- String    ieee1588CmldsLinkPortDsPortIdentityClockIdentity(2)
   |  |        |     |        Textual Convention: Ieee1588ClockIdentity
   |  |        |     |        Size: 8
   |  |        |     +-- -R-- Unsigned  ieee1588CmldsLinkPortDsPortIdentityPortNumber(3)
   |  |        |     +-- -R-- EnumVal   ieee1588CmldsLinkPortDsCmldiServiceMeasurementValid(4)
   |  |        |     |        Textual Convention: TruthValue
   |  |        |     |        Values: true(1), false(2)
   |  |        |     +-- -R-- String    ieee1588CmldsLinkPortDsCmldiMeanLinkDelay(5)
   |  |        |     |        Textual Convention: Ieee1588TimeInterval
   |  |        |     |        Size: 8
   |  |        |     +-- -R-- Integer32 ieee1588CmldsLinkPortDsCmldiScaledNeighborRateRatio(6)
   |  |        |     +-- -RW- Integer32 ieee1588CmldsLinkPortDsLogMinPdelayReqInterval(7)
   |  |        |     |        Textual Convention: Ieee1588LogTimeInterval
   |  |        |     |        Range: -128..127
   |  |        |     +-- -RW- Unsigned  ieee1588CmldsLinkPortDsVersionNumber(8)
   |  |        |     |        Range: 0..15
   |  |        |     +-- -RW- Unsigned  ieee1588CmldsLinkPortDsMinorVersionNumber(9)
   |  |        |     |        Range: 0..15
   |  |        |     +-- -RW- String    ieee1588CmldsLinkPortDsDelayAsymmetry(10)
   |  |        |     |        Textual Convention: Ieee1588TimeInterval
   |  |        |     |        Size: 8
   |  |        |     +-- -R-- Unsigned  ieee1588CmldsLinkPortDsDomainNumber(11)
   |  |        |              Range: 0..255
   |  |        |
   |  |        +--ieee1588CmldsTimestampCorrectionLinkPortDsTable(2)
   |  |        |  |
   |  |        |  +--ieee1588CmldsTimestampCorrectionLinkPortDsEntry(1)
   |  |        |     |  Index: ieee1588LinkPortIndex
   |  |        |     |
   |  |        |     +-- -RW- String    ieee1588CmldsTimestampCorrectionLinkPortDsEgressLatency(2)
   |  |        |     |        Textual Convention: Ieee1588TimeInterval
   |  |        |     |        Size: 8
   |  |        |     +-- -RW- String    ieee1588CmldsTimestampCorrectionLinkPortDsIngressLatency(3)
   |  |        |              Textual Convention: Ieee1588TimeInterval
   |  |        |              Size: 8
   |  |        |
   |  |        +--ieee1588CmldsAsymmetryCorrectionLinkPortDsTable(3)
   |  |        |  |
   |  |        |  +--ieee1588CmldsAsymmetryCorrectionLinkPortDsEntry(1)
   |  |        |     |  Index: ieee1588LinkPortIndex
   |  |        |     |
   |  |        |     +-- -RW- EnumVal   ieee1588CmldsAsymmetryCorrectionLinkPortDsEnable(2)
   |  |        |     |        Textual Convention: TruthValue
   |  |        |     |        Values: true(1), false(2)
   |  |        |     +-- -RW- String    ieee1588CmldsAsymmetryCorrectionLinkPortDsConstantAsymmetry(3)
   |  |        |     |        Textual Convention: Ieee1588TimeInterval
   |  |        |     |        Size: 8
   |  |        |     +-- -RW- String    ieee1588CmldsAsymmetryCorrectionLinkPortDsScaledDelayCoefficient(4)
   |  |        |              Textual Convention: Ieee1588RelativeDifference
   |  |        |              Size: 8
   |  |        |
   |  |        +--ieee1588CmldsPerfMonPortDs(4)
   |  |           |
   |  |           +--ieee1588CmldsPerfMonPortDsRecordListPdTable(1)
   |  |           |  |
   |  |           |  +--ieee1588CmldsPerfMonPortDsRecordListPdEntry(1)
   |  |           |     |  Index: ieee1588LinkPortIndex, ieee1588CmldsPerfMonPortDsRecordListPdIndex
   |  |           |     |
   |  |           |     +-- ---- Unsigned  ieee1588CmldsPerfMonPortDsRecordListPdIndex(2)
   |  |           |     |        Range: 0..98
   |  |           |     +-- -R-- TimeTicks ieee1588CmldsPerfMonPortDsRecordListPdPmTime(3)
   |  |           |     |        Textual Convention: TimeStamp
   |  |           |     +-- -R-- String    ieee1588CmldsPerfMonPortDsRecordListPdAverMeanLinkDelay(4)
   |  |           |     |        Textual Convention: Ieee1588TimeInterval
   |  |           |     |        Size: 8
   |  |           |     +-- -R-- String    ieee1588CmldsPerfMonPortDsRecordListPdMinMeanLinkDelay(5)
   |  |           |     |        Textual Convention: Ieee1588TimeInterval
   |  |           |     |        Size: 8
   |  |           |     +-- -R-- String    ieee1588CmldsPerfMonPortDsRecordListPdMaxMeanLinkDelay(6)
   |  |           |     |        Textual Convention: Ieee1588TimeInterval
   |  |           |     |        Size: 8
   |  |           |     +-- -R-- String    ieee1588CmldsPerfMonPortDsRecordListPdStdDevMLinkDelay(7)
   |  |           |              Textual Convention: Ieee1588TimeInterval
   |  |           |              Size: 8
   |  |           |
   |  |           +--ieee1588CmldsPerfMonPortDsRecordListTable(2)
   |  |              |
   |  |              +--ieee1588CmldsPerfMonPortDsRecordListEntry(1)
   |  |                 |  Index: ieee1588LinkPortIndex, ieee1588CmldsPerfMonPortDsRecordListIndex
   |  |                 |
   |  |                 +-- ---- Unsigned  ieee1588CmldsPerfMonPortDsRecordListIndex(2)
   |  |                 |        Range: 0..98
   |  |                 +-- -R-- TimeTicks ieee1588CmldsPerfMonPortDsRecordListPmTime(3)
   |  |                 |        Textual Convention: TimeStamp
   |  |                 +-- -R-- Counter   ieee1588CmldsPerfMonPortDsRecordListAnnounceTx(4)
   |  |                 +-- -R-- Counter   ieee1588CmldsPerfMonPortDsRecordListAnnounceRx(5)
   |  |                 +-- -R-- Counter   ieee1588CmldsPerfMonPortDsRecordListAnnounceForeignTtRx(6)
   |  |                 +-- -R-- Counter   ieee1588CmldsPerfMonPortDsRecordListSyncTx(7)
   |  |                 +-- -R-- Counter   ieee1588CmldsPerfMonPortDsRecordListSyncRx(8)
   |  |                 +-- -R-- Counter   ieee1588CmldsPerfMonPortDsRecordListFollowUpTx(9)
   |  |                 +-- -R-- Counter   ieee1588CmldsPerfMonPortDsRecordListFollowUpRx(10)
   |  |                 +-- -R-- Counter   ieee1588CmldsPerfMonPortDsRecordListDelayReqTx(11)
   |  |                 +-- -R-- Counter   ieee1588CmldsPerfMonPortDsRecordListDelayReqRx(12)
   |  |                 +-- -R-- Counter   ieee1588CmldsPerfMonPortDsRecordListDelayRespTx(13)
   |  |                 +-- -R-- Counter   ieee1588CmldsPerfMonPortDsRecordListDelayRespRx(14)
   |  |                 +-- -R-- Counter   ieee1588CmldsPerfMonPortDsRecordListPDelayReqTx(15)
   |  |                 +-- -R-- Counter   ieee1588CmldsPerfMonPortDsRecordListPDelayReqRx(16)
   |  |                 +-- -R-- Counter   ieee1588CmldsPerfMonPortDsRecordListPDelayRespTx(17)
   |  |                 +-- -R-- Counter   ieee1588CmldsPerfMonPortDsRecordListPDelayRespRx(18)
   |  |                 +-- -R-- Counter   ieee1588CmldsPerfMonPortDsRecordListPDelayRespFollowUpTx(19)
   |  |                 +-- -R-- Counter   ieee1588CmldsPerfMonPortDsRecordListPDelayRespFollowUpRx(20)
   |  |
   |  +--ieee1588Profiles(6)
   |
   +--ieee1588Conformance(2)
      |
      +--ieee1588Groups(1)
      |  |
      |  +--ieee1588AcceptableTimeTransmitterPortDsGrp(1)
      |  +--ieee1588AcceptableTimeTransmitterTableDsGrp(2)
      |  +--ieee1588AlternateTtPortDsGrp(3)
      |  +--ieee1588AlternateTimeScaleOffsetDsGrp(4)
      |  +--ieee1588AsymmetryCorrectionPortDsGrp(5)
      |  +--ieee1588BaseInstanceGrp(6)
      |  +--ieee1588BasePortGrp(7)
      |  +--ieee1588CmldsAsymmetryCorrectionLinkPortDsGrp(8)
      |  +--ieee1588CmldsDefaultDsGrp(9)
      |  +--ieee1588CmldsLinkPortDsGrp(10)
      |  +--ieee1588CmldsTimestampCorrectionLinkPortDsGrp(11)
      |  +--ieee1588CommonServicesPortDsGrp(12)
      |  +--ieee1588CommunicationCapabilitiesPortDsGrp(13)
      |  +--ieee1588CurrentDsGrp(14)
      |  +--ieee1588DefaultDsDeprecatedGrp(15)
      |  +--ieee1588DefaultDsGrp(16)
      |  +--ieee1588DescriptionDsGrp(17)
      |  +--ieee1588DescriptionPortDsGrp(18)
      |  +--ieee1588EnhancedSynchronizationAccuracyMetricsDsGrp(19)
      |  +--ieee1588ExternalPortConfigurationPortDsGrp(20)
      |  +--ieee1588FaultLogDsGrp(21)
      |  +--ieee1588GrandmasterClusterDsGrp(22)
      |  +--ieee1588HoldoverUpgradeDsGrp(23)
      |  +--ieee1588L1SyncBasicPortDsGrp(24)
      |  +--ieee1588L1SyncOptParamsPortDsGrp(25)
      |  +--ieee1588NonVolatileStorageDsGrp(26)
      |  +--ieee1588ParentDsGrp(27)
      |  +--ieee1588PathTraceDsGrp(28)
      |  +--ieee1588PerfMonDsGrp(29)
      |  +--ieee1588PerfMonPortDsGrp(30)
      |  +--ieee1588PerfMonPortDsPdGrp(31)
      |  +--ieee1588CmldsPerfMonPortDsGrp(32)
      |  +--ieee1588CmldsPerfMonPortDsPdGrp(33)
      |  +--ieee1588PortDsGrp(34)
      |  +--ieee1588TrMonitoringPortDsGrp(35)
      |  +--ieee1588TcDefaultDsGrp(36)
      |  +--ieee1588TcPortDsGrp(37)
      |  +--ieee1588TimePropertiesDsGrp(38)
      |  +--ieee1588TimestampCorrectionPortDsGrp(39)
      |  +--ieee1588UnicastDiscoveryPortDsGrp(40)
      |  +--ieee1588UnicastNegotiationPortDsGrp(41)
      |
      +--ieee1588Compliances(2)
         |
         +--ieee1588Compliance(1)
         +--ieee1588ComplianceDeprecated(2)
